<?xml version="1.0" encoding="UTF-8"?>
<svg width="1920px" height="4985px" viewBox="0 0 1920 4985" version="1.1" xmlns="http://www.w3.org/2000/svg" xmlns:xlink="http://www.w3.org/1999/xlink">
    <!-- Generator: Sketch 53.2 (72643) - https://sketchapp.com -->
    <title>Backgrounds /2</title>
    <desc>Created with Sketch.</desc>
    <defs>
        <path d="M2250.47702,4836.09143 C2441.51226,4836.09143 2615.07216,4784.84242 2771.16193,4682.34286 C2927.25169,4579.8433 3042.57001,4442.40277 3117.12035,4270.01714 L3173.03282,4297.97143 C3093.82309,4479.67519 2971.51578,4624.10423 2806.10722,4731.26286 C2640.69866,4838.42149 2455.49045,4892 2250.47702,4892 C2073.41998,4892 1903.35457,4858.22224 1740.27571,4790.66571 C1577.19685,4723.10919 1421.10943,4649.72992 1272.00875,4570.52571 C1150.86446,4505.29872 1033.21647,4448.22596 919.061269,4399.30571 C804.906067,4350.38547 696.576734,4325.92571 594.070022,4325.92571 C463.606933,4325.92571 349.453443,4365.52722 251.606127,4444.73143 C153.758811,4523.93563 93.1875709,4624.10416 69.8905908,4745.24 C65.2311948,4768.53535 61.7367002,4792.99511 59.4070022,4818.62 C57.0773042,4844.24489 55.9124726,4868.70465 55.9124726,4892 L0,4892 C0,4673.02367 54.747082,4458.70962 164.242888,4249.05143 C273.738695,4039.39324 410.023984,3830.90294 573.102845,3623.57429 C736.181705,3416.24563 914.40093,3204.26108 1107.76586,2987.61429 C1301.1308,2770.96749 1479.35002,2549.66494 1642.42888,2323.7 C1805.50774,2097.73506 1941.79303,1861.29076 2051.28884,1614.36 C2160.78465,1367.42924 2215.53173,1106.52518 2215.53173,831.64 C2215.53173,575.3911 2173.59779,380.877807 2089.72867,248.094286 C2005.85954,115.310765 1887.04672,48.92 1733.28665,48.92 L1726.29759,48.92 C1428.09625,48.92 1161.34983,122.299266 926.050328,269.06 C690.750829,415.820734 519.520594,605.675026 412.354486,838.628571 C510.201802,740.788082 626.684955,691.868571 761.80744,691.868571 C896.929924,691.868571 1012.24825,739.623332 1107.76586,835.134286 C1203.28348,930.645239 1251.04158,1045.95551 1251.04158,1181.06857 C1251.04158,1316.18163 1203.28348,1431.4919 1107.76586,1527.00286 C1012.24825,1622.51381 896.929924,1670.26857 761.80744,1670.26857 C626.684955,1670.26857 511.366634,1622.51381 415.849015,1527.00286 C320.331397,1431.4919 272.573304,1316.18163 272.573304,1181.06857 C272.573304,1162.43229 273.738136,1146.12578 276.067834,1132.14857 C278.397532,1118.17136 279.562363,1104.19436 279.562363,1090.21714 C335.475115,815.331959 472.925236,580.052407 691.916849,384.371429 C831.69873,258.576514 990.115818,163.066993 1167.17287,97.84 C1344.22992,32.6130072 1530.60296,0 1726.29759,0 C1921.99223,0 2108.36527,32.6130072 2285.42232,97.84 C2462.47937,163.066993 2620.89646,258.576514 2760.67834,384.371429 C2900.46022,505.507272 3007.62472,645.277303 3082.17505,803.685714 C3156.72539,962.094125 3194,1129.81816 3194,1306.86286 C3194,1483.90755 3147.40674,1665.60859 3054.21882,1851.97143 C2970.34969,2005.72077 2849.20721,2161.7973 2690.78775,2320.20571 C2541.68707,2469.29598 2371.62167,2610.23076 2180.58643,2743.01429 C1989.5512,2875.79781 1796.18916,3009.74409 1600.49453,3144.85714 C1404.7999,3270.65206 1213.76753,3399.93934 1027.39168,3532.72286 C841.015844,3665.50638 675.609767,3804.11166 531.16849,3948.54286 C437.98057,4037.0652 361.101689,4123.25672 300.52954,4207.12 C239.957392,4290.98328 191.034468,4374.84529 153.7593,4458.70857 C265.584804,4332.91366 412.353577,4270.01714 594.070022,4270.01714 C701.23613,4270.01714 814.224789,4295.64165 933.039387,4346.89143 C1051.85399,4398.14121 1174.1613,4456.37872 1299.96499,4521.60571 C1444.40627,4596.15085 1596.9992,4667.20061 1757.74836,4734.75714 C1918.49752,4802.31367 2082.73877,4836.09143 2250.47702,4836.09143 Z" id="path-1"></path>
    </defs>
    <g id="Backgrounds-/2" stroke="none" stroke-width="1" fill="none" fill-rule="evenodd">
        <g id="Group-1313" transform="translate(-1122.000000, 41.000000)">
            <mask id="mask-2" fill="white">
                <use xlink:href="#path-1"></use>
            </mask>
            <use id="Mask" fill="#ECECEC" xlink:href="#path-1"></use>
        </g>
    </g>
</svg>