<?xml version="1.0" encoding="UTF-8"?>
<svg width="68px" height="77px" viewBox="0 0 68 77" version="1.1" xmlns="http://www.w3.org/2000/svg" xmlns:xlink="http://www.w3.org/1999/xlink">
    <!-- Generator: Sketch 53.2 (72643) - https://sketchapp.com -->
    <title>icons / loan insurance</title>
    <desc>Created with Sketch.</desc>
    <g id="***Style-guide***" stroke="none" stroke-width="1" fill="none" fill-rule="evenodd">
        <g id="Steinbach-Style-Guide" transform="translate(-1342.000000, -1726.000000)">
            <g id="icons-/-loan-insurance" transform="translate(1343.000000, 1727.000000)">
                <g id="Group-10">
                    <path d="M36.4187614,59.4654875 C36.4187614,59.491134 36.4135186,59.6332583 36.307613,59.9613196 C36.2436502,60.1675602 36.1272589,60.3823496 35.9773133,60.5800413 C35.8577763,60.7296458 35.6260423,60.9540526 35.204517,61.1827338 C35.0703,61.2586047 34.9025288,61.3248582 34.704349,61.3772197 L34.704349,56.4199665 C35.197177,56.6123152 35.570468,56.8591627 35.8336592,57.1637148 C36.2436502,57.6499295 36.4407814,58.4193243 36.4187614,59.4462526 L36.4187614,59.4654875 Z M29.4950516,51.5503387 C29.3954374,51.2575413 29.3356689,50.9839787 29.3094547,50.7146905 C29.2685604,49.8833167 29.5296544,49.1780382 30.1011252,48.563591 C30.5216019,48.1169146 31.1098499,47.8166369 31.8522377,47.6638265 L31.8522377,53.2323212 C31.5166952,53.1479015 31.2356783,53.0485213 31.0081386,52.9309749 C30.5331362,52.6841274 30.187108,52.447966 29.9364997,52.1936383 C29.7288828,51.994878 29.5757915,51.7683339 29.4950516,51.5503387 L29.4950516,51.5503387 Z M28.3720328,62.8540303 C29.3629317,63.4898496 30.5331362,63.885233 31.8553834,64.0359061 L31.8553834,64.5402871 C31.8553834,65.1194704 32.1059917,65.4592865 32.3314343,65.6537724 C32.6009169,65.881385 32.9207308,66 33.2562733,66 C33.5750387,66 33.8906584,65.8899338 34.1706267,65.6794188 C34.5156063,65.4208167 34.704349,65.0158159 34.704349,64.5402871 L34.704349,63.9920934 C35.9857019,63.7698238 36.9776494,63.2718544 37.657123,62.5045968 C38.4592793,61.6026952 38.9049217,60.6014134 38.9762245,59.54777 C39.0265558,58.9910274 38.9971959,58.4203929 38.8860474,57.8198375 C38.7801418,57.1882927 38.5452621,56.5791885 38.1730196,55.9839761 C37.79134,55.4101359 37.2681034,54.9089606 36.6253298,54.500754 C36.1104818,54.1620066 35.4781939,53.8980614 34.704349,53.7014383 L34.704349,47.9929565 C34.7179804,48.0015054 34.7326604,48.0100542 34.7473403,48.0207402 C35.0619114,48.2376668 35.3355883,48.4898573 35.5683709,48.7805176 C35.7613078,49.011336 35.9175448,49.3019962 36.017159,49.6054797 C36.1251618,49.9485016 36.1943674,50.2808374 36.2226788,50.6153104 C36.307613,51.3836365 36.8581124,51.8655769 37.5910631,51.7875688 C38.1981853,51.7127665 38.6438277,51.2596785 38.8011132,50.3738059 C38.7654618,48.852114 38.2757795,47.6093278 37.3540862,46.6839168 C36.6400098,45.960472 35.7508221,45.466777 34.704349,45.2156551 L34.704349,44.4729755 C34.704349,44.0530141 34.5397234,43.6672482 34.1842581,43.3423926 C33.6190787,42.8978534 32.9217794,42.8519034 32.2779572,43.408646 C32.0839717,43.6009947 31.8522377,43.9408107 31.8522377,44.4729755 L31.8522377,45.0628448 C31.2660869,45.1419215 30.7145389,45.2819086 30.1787195,45.4849433 C29.3629317,45.7991128 28.7096724,46.2094567 28.1895816,46.7255924 C27.659005,47.2406594 27.2437711,47.8604497 26.9533171,48.5849631 C26.675446,49.3158881 26.5695404,50.0831457 26.6418918,50.8835299 C26.8033716,52.3250765 27.4062995,53.5197756 28.4454327,54.4419808 C29.3681746,55.2241988 30.5635448,55.720031 31.8522377,55.8856646 L31.8553834,61.4488162 C30.9798272,61.3248582 30.2867222,61.0683932 29.7876027,60.6836958 C29.142732,60.1889323 28.7463724,59.5958571 28.5932811,58.9717925 C28.5125412,58.2985721 27.9934989,57.8476212 27.3056368,57.8273178 C26.7310202,57.7856422 26.4049149,58.0645478 26.2623093,58.236593 C26.123898,58.406501 25.9120868,58.7741008 26.0389638,59.280619 C26.3210292,60.8258202 27.1043113,62.0258623 28.3720328,62.8540303 L28.3720328,62.8540303 Z" id="Fill-1" fill="#00C8AE"></path>
                    <g id="Group-9" stroke="#44273A" stroke-linecap="round" stroke-linejoin="round" stroke-width="2.5">
                        <path d="M32.9557475,33.9367391 C44.1681738,33.9367391 53.2577803,43.0682609 53.2577803,54.3334783 C53.2577803,65.5965217 44.1681738,74.7280435 32.9557475,74.7280435 C21.7433213,74.7280435 12.6537148,65.5965217 12.6537148,54.3334783 C12.6537148,43.0682609 21.7433213,33.9367391 32.9557475,33.9367391 Z" id="Stroke-3"></path>
                        <path d="M35.0229541,20.0180435 L43.902659,24.6876087 C45.9908557,25.7854348 50.0698721,27.4517391 50.0936754,23.3321739 L51.5922,24.3473913 C55.7999705,27.1963043 59.0047574,25.1778261 57.4304951,21.2419565 C64.9101344,26.6169565 67.5544623,19.8115217 64.2230852,18.1397826 L47.6711508,7.80391304 L40.6556754,3.42130435 C35.6916098,0.322391304 29.1402984,0.274565217 27.2977082,1.3626087 C16.8253475,4.03217391 13.8044951,6.5723913 4.67485574,5.41369565" id="Stroke-5"></path>
                        <path d="M0.2706,23.8383696 L11.093518,28.1872826 C13.8568623,29.2981522 16.9491246,29.0122826 18.1144033,28.1601087 C20.069518,26.7275 22.0246328,25.2959783 23.9797475,23.8644565 C32.1193869,17.9025 32.777223,19.3916304 42.3656164,18.826413 C44.4906,18.701413 45.8885016,15.3188043 42.3656164,13.9796739 C33.4166656,9.93402174 27.892141,11.7481522 19.7330262,15.8775" id="Stroke-7"></path>
                    </g>
                </g>
            </g>
        </g>
    </g>
</svg>