<?xml version="1.0" encoding="UTF-8"?>
<svg width="77px" height="67px" viewBox="0 0 77 67" version="1.1" xmlns="http://www.w3.org/2000/svg" xmlns:xlink="http://www.w3.org/1999/xlink">
    <!-- Generator: Sketch 53.2 (72643) - https://sketchapp.com -->
    <title>icons / reno</title>
    <desc>Created with Sketch.</desc>
    <defs>
        <polygon id="path-1" points="0.142215475 0.0789215686 41.755814 0.0789215686 41.755814 24.8745588 0.142215475 24.8745588"></polygon>
        <polygon id="path-3" points="0 0.12375 36.7261352 0.12375 36.7261352 20.90525 0 20.90525"></polygon>
        <polygon id="path-5" points="0 0.0805357143 44.8765381 0.0805357143 44.8765381 55 0 55"></polygon>
    </defs>
    <g id="***Style-guide***" stroke="none" stroke-width="1" fill="none" fill-rule="evenodd">
        <g id="Steinbach-Style-Guide" transform="translate(-1056.000000, -1843.000000)">
            <g id="icons-/-reno" transform="translate(1056.000000, 1843.000000)">
                <g id="Group-16">
                    <path d="M11.5024401,36 C9.01964587,36 7,33.924654 7,31.3739791 L7,20.4462341 C7,19.6479129 7.63020084,19 8.40774573,19 C9.18575987,19 9.81549146,19.6479129 9.81549146,20.4462341 L9.81549146,31.3739791 C9.81549146,32.3299399 10.5723894,33.1075318 11.5024401,33.1075318 C12.4324908,33.1075318 13.1893887,32.3299399 13.1893887,31.3739791 L13.1893887,29.2933303 C13.1893887,28.5923888 13.6783457,27.9926838 14.3498405,27.8692718 C15.0199274,27.7492343 15.6825064,28.1358609 15.9180692,28.7934154 C16.1616092,29.4716992 16.7965025,29.927745 17.4980292,29.927745 C18.4280798,29.927745 19.1845085,29.1506352 19.1845085,28.1956386 L19.1845085,22.631976 C19.1845085,21.8331726 19.8147094,21.1857418 20.5922543,21.1857418 C21.3697992,21.1857418 22,21.8331726 22,22.631976 L22,28.1956386 C22,30.7458314 19.9803541,32.8202132 17.4980292,32.8202132 C16.9307076,32.8202132 16.3798098,32.7088532 15.8692673,32.5039701 C15.3770256,34.5103789 13.6056122,36 11.5024401,36" id="Fill-1" fill="#00C8AE"></path>
                    <path d="M53.1692368,67 C53.1172202,67 53.0642403,66.9970398 53.0122237,66.9911193 C52.7651447,66.9871724 52.519029,66.9190871 52.3013297,66.7863703 C52.1963332,66.7227255 52.1009694,66.6467463 52.0157199,66.5608998 C39.1343793,59.2274325 44.4733085,46.8576336 47.3539702,40.1862702 C47.8847325,38.9558029 48.3437311,37.8925882 48.5773243,37.1258896 C49.2101933,35.0448506 48.9847879,34.5263176 48.9332529,34.4434312 C48.6823208,34.0418272 47.0230866,33.8173434 45.5593964,33.6190082 C45.0358587,33.5479628 44.4718636,33.4714903 43.868856,33.3797233 C42.1518255,33.1167565 40.8056544,32.2755589 39.9757965,30.9469106 C38.2823662,28.2338632 39.2817598,24.4837499 39.401687,24.0648779 C39.6261291,23.2809113 40.4299787,22.8309569 41.1938526,23.059881 C41.9586897,23.2888052 42.3979412,24.1087879 42.1763889,24.8922611 C41.9562815,25.6786946 41.5700099,28.0143131 42.4143168,29.3577625 C42.7909558,29.9577017 43.4064859,30.3158891 44.2960666,30.4515661 C44.8812537,30.5413596 45.4293549,30.6153653 45.9379619,30.6844372 C48.5243444,31.0342373 50.3935716,31.2873366 51.3684018,32.8498428 C52.2786929,34.3092343 51.8630415,36.2758113 51.3361323,38.006557 C51.0534122,38.9350813 50.5640706,40.0698347 49.996704,41.3836818 C46.4152627,49.6792226 43.7267735,58.2263826 53.0998813,63.7876611 C62.4715443,58.2258893 59.7835367,49.6782359 56.202577,41.3836818 C55.6352104,40.0698347 55.1458688,38.9345879 54.8631488,38.0055702 C54.2996353,36.1509884 53.9018044,34.2362154 54.7976464,32.7990255 C55.7483948,31.2730289 57.5810177,31.0233831 60.1177917,30.67753 C60.6080966,30.6104316 61.137414,30.5383994 61.704299,30.4515661 C62.5958062,30.3153957 63.2127813,29.9557282 63.5894202,29.3523354 C64.4342088,27.999512 64.0325248,25.6224503 63.8249399,24.8962081 C63.6004978,24.1112547 64.0397494,23.2892986 64.8055497,23.059881 C65.5732767,22.8304635 66.3742365,23.2804179 66.598197,24.0648779 C66.7181242,24.4837499 67.7179994,28.2343566 66.0236058,30.947404 C65.1942296,32.2760522 63.8480584,33.1172499 62.1300647,33.3797233 C61.5477674,33.4685301 61.0035194,33.5430291 60.499247,33.6116077 C59.0755326,33.8059958 57.4615721,34.0260393 57.2332769,34.3921207 C57.1836685,34.4715534 56.9693407,34.9772587 57.6219567,37.1253963 C57.8550683,37.8925882 58.3145485,38.9553095 58.8457925,40.1862702 C61.7235644,46.8526999 67.0567139,59.2086844 54.2110144,66.5456053 C54.1209485,66.6418126 54.0173969,66.7261791 53.9018044,66.795251 C53.676399,66.9319148 53.4225771,67 53.1692368,67" id="Fill-3" fill="#45263A"></path>
                    <g id="Group-7" transform="translate(35.000000, 0.000000)">
                        <mask id="mask-2" fill="white">
                            <use xlink:href="#path-1"></use>
                        </mask>
                        <g id="Clip-6"></g>
                        <path d="M6.18049535,21.9333824 L28.7007977,21.9333824 C28.4947047,18.157402 28.4898209,8.83681373 32.9003093,3.8902451 C33.000914,3.7775 33.1034721,3.66769608 33.2074953,3.56083333 L31.330193,3.54955882 C29.3723093,5.22897059 26.6286349,8.88142157 27.3255419,15.8716176 C27.3944023,16.5657353 26.9680535,17.2132843 26.3048442,17.4216176 C25.6431,17.629951 24.9237279,17.3417157 24.5862628,16.7314216 C24.4050767,16.4039706 20.6646349,9.4897549 23.4625186,3.10053922 L13.6105884,3.40004902 C12.8008674,7.09710784 11.3118209,9.59367647 11.2419837,9.70838235 C10.9177047,10.2456373 10.2891698,10.5162255 9.67821628,10.3833824 C9.06677442,10.2505392 8.60721628,9.74220588 8.53396047,9.11818627 L7.8648907,3.41230392 L7.1386814,3.40789216 C5.42596047,5.65053922 -0.571737209,14.5809314 6.18049535,21.9333824 M30.2831233,24.8745588 L5.55684419,24.8745588 C5.1681,24.8745588 4.79547209,24.7196569 4.52100698,24.4436765 C-3.68950465,16.2020098 1.45940233,5.48779412 5.32877442,0.974068627 C5.60861163,0.647598039 6.00663488,0.466715686 6.44763488,0.462794118 L9.17714651,0.477990196 C9.91654186,0.482401961 10.5377512,1.03926471 10.624193,1.7770098 L10.7433558,2.79269608 C10.8190535,2.44857843 10.8884023,2.09269608 10.9484721,1.7270098 C11.0617744,1.03338235 11.649286,0.517696078 12.3496116,0.496127451 L26.0220767,0.0799509804 C26.5837047,0.0574019608 27.1111465,0.373578431 27.3694953,0.877990196 C27.6278442,1.38240196 27.5741233,1.99122549 27.231286,2.44220588 C26.1373326,3.88093137 25.6196581,5.46328431 25.4477512,7.01132353 C26.6462163,3.91328431 28.5293791,1.98926471 29.9183093,0.912303922 C30.175193,0.713284314 30.4897047,0.605441176 30.8139837,0.605441176 L30.8227744,0.605441176 L40.2991465,0.660343137 C41.106914,0.664754902 41.7584023,1.32455882 41.7559605,2.13485294 C41.7535186,2.94563725 41.0981233,3.60151961 40.2908442,3.60151961 C38.1376116,3.60151961 36.4341698,4.33730392 35.0843093,5.8520098 C30.4496581,11.0485784 31.7257744,23.1201471 31.7389605,23.2417157 C31.7853558,23.657402 31.6525186,24.0730882 31.3746349,24.3848529 C31.0967512,24.6966176 30.6997047,24.8745588 30.2831233,24.8745588" id="Fill-5" fill="#00C8AE" mask="url(#mask-2)"></path>
                    </g>
                    <g id="Group-10" transform="translate(0.000000, 2.000000)">
                        <mask id="mask-4" fill="white">
                            <use xlink:href="#path-3"></use>
                        </mask>
                        <g id="Clip-9"></g>
                        <path d="M25.0747539,20.90525 C12.9187934,20.90525 -4.86842105e-05,17.26375 -4.86842105e-05,10.51475 C-4.86842105e-05,3.76575 12.9187934,0.12375 25.0747539,0.12375 C28.7285039,0.12375 32.2420434,0.42375 35.5180039,1.01475 C36.3125303,1.15825 36.8431882,1.93575 36.7039513,2.75175 C36.5647145,3.56825 35.8067013,4.11525 35.012175,3.96925 C31.9027145,3.40825 28.5590829,3.12375 25.0747539,3.12375 C12.3954382,3.12375 2.92100395,7.02575 2.92100395,10.51475 C2.92100395,14.00325 12.3954382,17.90525 25.0747539,17.90525 C28.3278329,17.90525 31.4669908,17.65625 34.4050829,17.16525 C35.2010697,17.02975 35.9522671,17.58675 36.0812803,18.40475 C36.2112671,19.22225 35.6708724,19.99275 34.8748855,20.12575 C31.7810039,20.64325 28.4841092,20.90525 25.0747539,20.90525" id="Fill-8" fill="#45263A" mask="url(#mask-4)"></path>
                    </g>
                    <g id="Group-13" transform="translate(0.000000, 12.000000)">
                        <mask id="mask-6" fill="white">
                            <use xlink:href="#path-5"></use>
                        </mask>
                        <g id="Clip-12"></g>
                        <path d="M24.9217258,55 C11.8785,55 -4.83870968e-05,50.0342857 -4.83870968e-05,44.5819196 L-4.83870968e-05,1.55375 C-4.83870968e-05,0.740044643 0.649790323,0.0805357143 1.45156452,0.0805357143 C2.25333871,0.0805357143 2.90317742,0.740044643 2.90317742,1.55375 L2.90317742,44.5819196 C2.90317742,47.2062054 11.9835,52.0535714 24.9217258,52.0535714 C31.5744677,52.0535714 38.2494677,50.6874107 42.7775323,48.3995089 C43.4960806,48.0366071 44.3670484,48.3332143 44.7241452,49.0614732 C45.0812419,49.7897321 44.7894677,50.6741518 44.0714032,51.0370536 C39.1605968,53.5184375 32.0017258,55 24.9217258,55" id="Fill-11" fill="#45263A" mask="url(#mask-6)"></path>
                    </g>
                    <path d="M25.4434701,18 C17.5238749,18 9,16.122407 9,12.0002371 C9,7.87759295 17.5238749,6 25.4434701,6 C28.4305016,6 31.3359124,6.2607768 33.8456298,6.75435616 C34.6217425,6.90655498 35.1257862,7.65522146 34.9725684,8.42569837 C34.8188733,9.19617527 34.0671036,9.69781501 33.2895589,9.5446679 C30.9602662,9.08712316 28.2467357,8.8448378 25.4434701,8.8448378 C16.0967058,8.8448378 11.8638845,11.2653206 11.8638845,12.0002371 C11.8638845,12.7351535 16.0967058,15.1551622 25.4434701,15.1551622 C27.8882728,15.1551622 30.3015728,14.9674029 32.4222793,14.6117982 C33.1998239,14.4785649 33.9406153,15.0029634 34.072354,15.7777075 C34.2040927,16.5524517 33.6785699,17.2864199 32.8986387,17.4172824 C30.6232825,17.7984907 28.0453091,18 25.4434701,18" id="Fill-14" fill="#45263A"></path>
                </g>
            </g>
        </g>
    </g>
</svg>