<?xml version="1.0" encoding="UTF-8"?>
<svg width="76px" height="78px" viewBox="0 0 76 78" version="1.1" xmlns="http://www.w3.org/2000/svg" xmlns:xlink="http://www.w3.org/1999/xlink">
    <!-- Generator: sketchtool 52.5 (67469) - http://www.bohemiancoding.com/sketch -->
    <title>105A2CFD-A1DA-47A2-A7CD-57D77169470E</title>
    <desc>Created with sketchtool.</desc>
    <defs>
        <polygon id="path-1" points="0 78 76 78 76 0 0 0"></polygon>
    </defs>
    <g id="***Style-guide***" stroke="none" stroke-width="1" fill="none" fill-rule="evenodd">
        <g id="Steinbach-Style-Guide" transform="translate(-487.000000, -1719.000000)">
            <g id="icons-/-tax-free-/-dark" transform="translate(487.000000, 1719.000000)">
                <g id="Group-16">
                    <path d="M37.9964336,33.2080589 L37.9946504,33.2080589 C36.3282153,33.2071453 34.7580751,32.5146415 33.5757889,31.2575371 C32.3801284,29.988556 31.7230056,28.2984084 31.7247888,26.497716 C31.7274637,22.7994903 34.543195,19.7910276 38.002675,19.7910276 L38.0053498,19.7910276 C41.4648297,19.7937683 44.2778862,22.8040583 44.276103,26.502284 C44.2734281,30.2005097 41.4559136,33.2080589 37.9964336,33.2080589 M38.0062414,17 L38.002675,17 C33.042601,17 29.0044607,21.259172 29.0000026,26.4949752 C28.9982193,29.0238015 29.9263942,31.4037121 31.6151197,33.1961821 C33.3145447,35.0014425 35.5801474,35.9981728 37.9937588,36 L37.9964336,36 C42.9573992,36 46.9964312,31.7399144 46.9999976,26.5050248 C47.0035641,21.2664807 42.9689902,17.0027408 38.0062414,17" id="Fill-1" fill="#00C7AE"></path>
                    <path d="M45,39.2338415 L15.4896959,39.2338415 C15.0213643,36.744661 13.2698583,35.0121913 10.7576519,34.5541821 L10.7576519,17.4847396 C13.0911884,16.9534127 14.9329317,15.1077985 15.4617223,12.7661585 L45,12.7661585 L45,10 L12.8574738,10 L12.8574738,11.3830792 C12.8574738,13.3074421 11.2963686,14.8724578 9.37792357,14.8724578 L8,14.8724578 L8,37.1990496 L9.37792357,37.1990496 C12.5181816,37.1990496 12.8574738,39.5895681 12.8574738,40.6160156 L12.8574738,42 L45,42 L45,39.2338415 Z" id="Fill-3" fill="#00C7AE"></path>
                    <path d="M68.2339198,17.6039604 L68.2339198,26 L71,26 L71,14.9670156 L69.6169599,14.9670156 C67.4319738,14.9670156 66.12768,13.6272702 66.12768,11.3831966 L66.12768,10 L55,10 L55,12.7663932 L63.4856028,12.7663932 C63.957176,15.3037624 65.7393789,17.1160396 68.2339198,17.6039604" id="Fill-5" fill="#00C7AE"></path>
                    <mask id="mask-2" fill="white">
                        <use xlink:href="#path-1"></use>
                    </mask>
                    <g id="Clip-8"></g>
                    <polygon id="Fill-7" fill="#44273A" mask="url(#mask-2)" points="49 18 52 18 52 11 49 11"></polygon>
                    <polygon id="Fill-9" fill="#44273A" mask="url(#mask-2)" points="49 30 52 30 52 23 49 23"></polygon>
                    <polygon id="Fill-10" fill="#44273A" mask="url(#mask-2)" points="49 41 52 41 52 34 49 34"></polygon>
                    <polygon id="Fill-11" fill="#44273A" mask="url(#mask-2)" points="41.1492985 54 43 52.1494967 36.8507015 46 35 47.8505033"></polygon>
                    <path d="M69,37.2871944 L69,29 L52.0926635,46.1277206 L54.0397656,48.0999925 L66.2452111,35.7358564 L66.2452111,37.2871944 C66.2452111,40.8710681 65.7638442,43.7463849 63.4147016,46.1277206 L37.5759358,72.3014125 C37.346971,72.5132491 37.1116961,72.7561307 36.8665055,73.0090564 C35.8181353,74.0910666 34.734609,75.2096005 32.8479031,75.2096005 C30.0390281,75.2096005 27.7547889,72.8949202 27.7547889,70.0506485 C27.7547889,67.2063767 30.0390281,64.8926096 32.8479031,64.8926096 C34.0287845,64.8926096 35.1519739,65.3144566 36.0948762,66.1161486 L37.0612157,66.9370155 L47.5701584,56.2903995 L45.6212534,54.3181276 L36.8286452,63.2262224 C35.6189179,62.4884466 34.2631579,62.1031231 32.8479031,62.1031231 C28.5210096,62.1031231 25,65.667822 25,70.0506485 C25,74.433475 28.5210096,78 32.8479031,78 C35.8911516,78 37.6606708,76.1729092 38.8316363,74.9648927 C39.0434738,74.7448383 39.2444941,74.536654 39.4824732,74.3138603 L65.3627051,48.0999925 C68.5600992,44.8612664 69,40.9888566 69,37.2871944" id="Fill-12" fill="#44273A" mask="url(#mask-2)"></path>
                    <path d="M67.0038345,61.9055126 C65.5605927,61.9055126 64.1789024,62.2956259 62.9460377,63.0425729 L58.9295814,59 L56.9452389,60.9986377 L62.7081003,66.799494 L63.6929222,65.9693475 C64.6547771,65.1576899 65.7985301,64.7305989 67.0038345,64.7305989 C69.8655137,64.7305989 72.1934414,67.0722036 72.1934414,69.9518318 C72.1934414,72.8314601 69.8655137,75.1758381 67.0038345,75.1758381 C65.0792059,75.1758381 63.9758747,74.0424756 62.9074533,72.947015 C62.6575731,72.6909454 62.4177984,72.4450445 62.2257949,72.2703255 L53.9843425,63.9771809 L52,65.9739697 L60.2837115,74.3077896 C60.4839831,74.4936019 60.6888481,74.7052985 60.9047372,74.9271639 C62.0980987,76.1501971 63.9014619,78 67.0038345,78 C71.4125659,78 75,74.3891403 75,69.9518318 C75,65.5145234 71.4125659,61.9055126 67.0038345,61.9055126" id="Fill-13" fill="#44273A" mask="url(#mask-2)"></path>
                    <path d="M73.2082826,4 L55,4 L55,6.76655669 L73.2082826,6.76655669 L73.2046285,46.2343486 L69.7524361,46.2343486 L69.7524361,49 L73.2082826,49 C74.7484775,49 76,47.7588517 76,46.2343486 L76,6.76655669 C76,5.24114831 74.7484775,4 73.2082826,4" id="Fill-14" fill="#44273A" mask="url(#mask-2)"></path>
                    <path d="M30.1431028,46.204391 L2.78822332,46.204391 L2.78822332,6.322138 L49.1789311,6.322138 L51.9671544,6.322138 L52,6.322138 L52,3.52652901 L51.9671544,3.52652901 L51.9671544,0 L49.1789311,0 L49.1789311,3.52652901 L2.78822332,3.52652901 C1.25086851,3.52652901 0,4.78071093 0,6.322138 L0,46.204391 C0,47.7458181 1.25086851,49 2.78822332,49 L30.1431028,49 L30.1431028,46.204391 Z" id="Fill-15" fill="#44273A" mask="url(#mask-2)"></path>
                </g>
            </g>
        </g>
    </g>
</svg>