<?xml version="1.0" encoding="UTF-8"?>
<svg width="76px" height="66px" viewBox="0 0 76 66" version="1.1" xmlns="http://www.w3.org/2000/svg" xmlns:xlink="http://www.w3.org/1999/xlink">
    <!-- Generator: sketchtool 52.5 (67469) - http://www.bohemiancoding.com/sketch -->
    <title>10D460F4-EDA7-4A54-B5E0-8AE0D4EF5042</title>
    <desc>Created with sketchtool.</desc>
    <defs>
        <polygon id="path-1" points="8.08510638e-05 0.413839286 75.3895745 0.413839286 75.3895745 44.634375 8.08510638e-05 44.634375"></polygon>
        <polygon id="path-3" points="0.379919149 0.216898062 37.7436036 0.216898062 37.7436036 56 0.379919149 56"></polygon>
    </defs>
    <g id="***Style-guide***" stroke="none" stroke-width="1" fill="none" fill-rule="evenodd">
        <g id="Steinbach-Style-Guide" transform="translate(-635.000000, -1624.000000)">
            <g id="icons-/-student-/-dark" transform="translate(635.000000, 1624.000000)">
                <g id="Group-11">
                    <g id="Group-3">
                        <mask id="mask-2" fill="white">
                            <use xlink:href="#path-1"></use>
                        </mask>
                        <g id="Clip-2"></g>
                        <path d="M72.5736128,10.4938393 L39.1918255,0.759375 C37.7413574,0.298928571 36.1445489,0.299732143 34.7142936,0.75375 L2.7700383,10.4841964 C1.11259149,10.9896429 8.08510638e-05,12.4971429 8.08510638e-05,14.2352679 L8.08510638e-05,14.3220536 C8.08510638e-05,15.9934821 1.05761277,17.4825 2.68352766,18.045 L5.77446383,18.9875893 C6.5401234,19.220625 7.35186809,18.793125 7.58714468,18.0313393 C7.82161277,17.2703571 7.39148511,16.4635714 6.62501702,16.2297321 L3.58663404,15.3048214 C3.17671915,15.1633929 2.90182553,14.7680357 2.90182553,14.3220536 L2.90182553,14.2352679 C2.90182553,13.7796429 3.19774043,13.3714286 3.6214,13.24125 L35.581017,3.50678571 C36.4598681,3.22794643 37.4292723,3.22794643 38.3428894,3.51642857 L71.757017,13.2613393 C72.1871447,13.3866964 72.4879106,13.7965179 72.4879106,14.2585714 C72.4879106,14.7198214 72.2000809,15.1183929 71.790166,15.2453571 L38.1375277,25.1654464 C37.4260383,25.3928571 36.6393574,25.3920536 35.9084638,25.160625 L16.8324638,19.3419643 L12.8359957,20.6284821 C12.6039532,20.6879464 12.3888894,20.7972321 12.1948468,20.9450893 L15.4482936,21.9375 C15.4515277,24.9066964 15.4620383,36.8429464 15.4620383,38.4677679 C15.4620383,38.6477679 15.4959957,38.8269643 15.5622936,38.9949107 C16.5333149,41.4514286 22.1613574,43.5825 27.3091447,44.60625 C27.4053574,44.6247321 27.5007617,44.634375 27.5953574,44.634375 C28.2728894,44.634375 28.8792723,44.1602679 29.0167191,43.4748214 C29.1735702,42.69375 28.6642085,41.934375 27.8791447,41.7776786 C22.2955702,40.6679464 19.0453574,38.89125 18.363783,38.0852679 C18.3629745,35.7115179 18.3540809,26.5186607 18.3516553,22.8230357 L35.0417404,27.9128571 C35.6869319,28.1185714 36.3652723,28.220625 37.0395702,28.220625 C37.7065915,28.220625 38.3687617,28.1201786 38.9929319,27.9216964 L57.0388894,22.60125 L57.0388894,30.200625 C57.0388894,30.9969643 57.6889319,31.6422321 58.490166,31.6422321 C59.2914,31.6422321 59.9414426,30.9969643 59.9414426,30.200625 L59.9414426,21.74625 L72.632634,18.0048214 C74.2811872,17.4953571 75.3896553,15.9902679 75.3896553,14.2585714 C75.3896553,12.5244643 74.2310596,10.9759821 72.5736128,10.4938393" id="Fill-1" fill="#44273A" mask="url(#mask-2)"></path>
                    </g>
                    <g id="Group-6" transform="translate(1.000000, 10.000000)">
                        <mask id="mask-4" fill="white">
                            <use xlink:href="#path-3"></use>
                        </mask>
                        <g id="Clip-5"></g>
                        <path d="M8.03489787,27.52096 C8.03489787,26.68416 8.19902553,26.60416 8.96064255,26.60416 C9.72306809,26.60416 9.88638723,26.68416 9.88638723,27.52096 C9.88638723,28.87936 9.22906809,29.61216 8.96064255,29.61216 C8.67766383,29.61216 8.03489787,28.82176 8.03489787,27.52096 Z M16.0237915,9.65616 L36.7394511,3.01856 C37.5010681,2.77376 37.9198766,1.96496 37.6724723,1.20976 C37.4266851,0.45616 36.6108979,0.04256 35.8444298,0.28736 L11.2584298,8.16736 C9.03906809,8.75536 7.50047234,10.91696 7.51017447,13.43216 L7.47864255,23.95936 C5.99098298,24.44016 5.13315319,25.69216 5.13315319,27.52096 C5.13315319,28.97056 5.59238723,30.25216 6.33217447,31.15136 C5.57298298,32.17536 5.13315319,33.51856 5.13315319,34.57536 L5.13315319,40.45456 C5.13315319,40.78896 5.04017447,43.72256 1.83038723,43.72256 C1.02915319,43.72256 0.379919149,44.36496 0.379919149,45.15776 C0.379919149,45.95136 1.02915319,46.59376 1.83038723,46.59376 C6.38311064,46.59376 8.03489787,42.92256 8.03489787,40.45456 L8.03489787,34.57536 C8.03489787,33.83296 8.60085532,32.77216 8.96064255,32.51616 C9.31962128,32.77216 9.88638723,33.83296 9.88638723,34.57536 L9.88638723,54.56416 C9.88638723,55.35696 10.5364298,56.00016 11.3376638,56.00016 C12.1388979,56.00016 12.7889404,55.35696 12.7889404,54.56416 L12.7889404,34.57536 C12.7889404,33.51856 12.3483021,32.17536 11.5891106,31.15136 C12.3297064,30.25216 12.7889404,28.97056 12.7889404,27.52096 C12.7889404,25.66816 11.9060468,24.40976 10.3803872,23.94336 L10.4111106,13.43056 C10.4086851,12.52176 10.7935362,11.70336 11.386983,11.25216 C11.580217,11.10416 11.7952809,10.99536 12.0273234,10.93696 L16.0237915,9.65616 Z" id="Fill-4" fill="#00C9AE" mask="url(#mask-4)"></path>
                    </g>
                    <path d="M45.5,55.102664 C39.1016591,55.102664 33.8972553,49.8981154 33.8972553,43.4995964 C33.8972553,37.1018846 39.1016591,31.897336 45.5,31.897336 C51.8975337,31.897336 57.1019374,37.1018846 57.1019374,43.4995964 C57.1019374,49.8981154 51.8975337,55.102664 45.5,55.102664 M45.5,29 C37.5048992,29 31,35.504273 31,43.4995964 C31,51.495727 37.5048992,58 45.5,58 C53.4942935,58 60,51.495727 60,43.4995964 C60,35.504273 53.4942935,29 45.5,29" id="Fill-7" fill="#44273A"></path>
                    <path d="M48.5647978,48.0790622 C48.4967604,48.2724683 48.3781311,48.4674277 48.2141435,48.6577268 C48.0335827,48.8511328 47.7701559,49.0321111 47.4517758,49.1827969 C47.1961994,49.309404 46.8586292,49.3963979 46.4233644,49.4476622 L46.4233644,44.8967956 C47.1778816,45.0668997 47.7230531,45.3294347 48.0867914,45.6983819 C48.5028663,46.1279141 48.6947666,46.7524058 48.6747043,47.6130237 C48.6747043,47.6899201 48.6555143,47.8328385 48.5647978,48.0790622 Z M44.8707161,43.5266423 C44.3307784,43.4458622 43.9024917,43.3332362 43.5666661,43.1833272 C43.1357626,42.9883677 42.8147656,42.7934083 42.5801239,42.5875746 C42.3629276,42.4065962 42.2024291,42.1984324 42.1056066,41.9716269 C42.0096565,41.7199661 41.9529586,41.4900537 41.9311518,41.2733458 C41.8875381,40.5688509 42.1483481,39.9466894 42.7039868,39.4239495 C43.2046723,38.9602411 43.9330213,38.6829482 44.8707161,38.5982845 L44.8707161,43.5266423 Z M49.3821188,45.2851611 C49.0995019,44.9123302 48.7052339,44.5837731 48.2097821,44.3088103 C47.7535827,44.0454985 47.1682866,43.8497623 46.4233644,43.7099508 L46.4233644,38.7070268 C46.6745794,38.7683886 46.8970093,38.8584893 47.1002492,38.9804361 C47.3898443,39.1536471 47.6480375,39.3610343 47.8678506,39.5987139 C48.0641123,39.8061011 48.2202494,40.0577619 48.3214332,40.3257341 C48.4191279,40.5968132 48.482804,40.8671155 48.5089722,41.1319808 C48.556075,41.4970443 48.8081623,41.6958874 49.1867293,41.6601578 C49.3786297,41.6407395 49.7170721,41.5319972 49.8357014,41.0045969 C49.8060441,39.9956234 49.4405611,39.176949 48.7488476,38.5695454 C48.1391279,38.0304942 47.3558256,37.6856256 46.4233644,37.5427071 L46.4233644,36.7015075 C46.4233644,36.4964506 46.3317756,36.3154723 46.1520871,36.171777 C45.8127724,35.9372043 45.4307162,35.9418647 45.0983797,36.1919721 C44.9474763,36.3232396 44.8707161,36.4941204 44.8707161,36.7015075 L44.8707161,37.4619271 C44.2784419,37.5038706 43.735015,37.6087293 43.2099059,37.7803868 C42.5853575,37.9932111 42.0881612,38.2642902 41.6930209,38.6076053 C41.2935193,38.9447065 40.9821174,39.3548204 40.7640488,39.8270728 C40.554703,40.3055391 40.4761983,40.808084 40.529407,41.3246101 C40.6523977,42.2815426 41.1085971,43.0714779 41.8866658,43.6749979 C42.6403108,44.2342441 43.6434262,44.5767825 44.8707161,44.6909619 L44.8742052,49.4647502 C43.8501552,49.3948445 43.0494074,49.1688157 42.4911519,48.7921012 C41.8831767,48.3835408 41.4941424,47.8771122 41.337133,47.2976709 C41.3205598,47.1811613 41.2246096,46.8013399 40.6401858,46.786582 C40.3383789,46.7780379 40.1866032,46.8860035 40.1220549,46.9528024 C40.0557621,47.0227082 39.9554505,47.1749474 40.0217434,47.4110736 C40.2380674,48.434805 40.8294694,49.2270706 41.7793761,49.7676753 L41.7802483,49.768452 C42.6411831,50.2500252 43.6818063,50.5312018 44.8742052,50.6034378 L44.8742052,51.3048258 C44.8742052,51.5316312 44.9553267,51.7087259 45.1219311,51.8345563 C45.2737069,51.9448521 45.4446726,52 45.6295948,52 C45.808411,52 45.9819936,51.9464056 46.1459812,51.8392167 C46.3256697,51.7211536 46.4233644,51.5316312 46.4233644,51.3048258 L46.4233644,50.5879032 C47.5642991,50.4713935 48.4269784,50.1311854 48.9895953,49.5773762 C49.5949537,48.9824003 49.9272902,48.3291696 49.9804989,47.6402093 C50.0214958,47.2735923 49.9979444,46.8922174 49.9089724,46.4766663 C49.8339568,46.0688826 49.6568852,45.6688662 49.3821188,45.2851611 Z" id="Fill-9" fill="#46253A"></path>
                </g>
            </g>
        </g>
    </g>
</svg>