<?xml version="1.0" encoding="UTF-8"?>
<svg width="89px" height="66px" viewBox="0 0 89 66" version="1.1" xmlns="http://www.w3.org/2000/svg" xmlns:xlink="http://www.w3.org/1999/xlink">
    <!-- Generator: Sketch 53.2 (72643) - https://sketchapp.com -->
    <title>icons / line-of-credit</title>
    <desc>Created with Sketch.</desc>
    <defs>
        <polygon id="path-1" points="0.00064 0.328170732 63.34944 0.328170732 63.34944 64.7507805 0.00064 64.7507805"></polygon>
        <polygon id="path-3" points="0.0754090909 0.589575 34.0158636 0.589575 34.0158636 25 0.0754090909 25"></polygon>
    </defs>
    <g id="***Style-guide***" stroke="none" stroke-width="1" fill="none" fill-rule="evenodd">
        <g id="Steinbach-Style-Guide" transform="translate(-1702.000000, -1507.000000)">
            <g id="icons-/-line-of-credit" transform="translate(1702.000000, 1507.000000)">
                <g id="Group-9" stroke-width="1">
                    <g id="Group-3">
                        <mask id="mask-2" fill="white">
                            <use xlink:href="#path-1"></use>
                        </mask>
                        <g id="Clip-2"></g>
                        <path d="M32.50784,64.7507805 C14.58304,64.7507805 0.00064,50.3017561 0.00064,32.5409024 C0.00064,14.7784634 14.58304,0.327853659 32.50784,0.327853659 C46.52704,0.327853659 58.92064,9.20114634 63.34944,22.4088293 L60.31104,23.4091951 C56.31904,11.4999268 45.14624,3.49858537 32.50784,3.49858537 C16.34784,3.49858537 3.20064,16.527122 3.20064,32.5409024 C3.20064,48.5530976 16.34784,61.5800488 32.50784,61.5800488 C38.69184,61.5800488 44.62944,59.657 49.68064,56.0201707 L51.56224,58.5837073 C45.96064,62.6184634 39.37184,64.7507805 32.50784,64.7507805" id="Fill-1" fill="#45263A" mask="url(#mask-2)"></path>
                    </g>
                    <g id="Group-6" transform="translate(52.000000, 41.000000)">
                        <mask id="mask-4" fill="white">
                            <use xlink:href="#path-3"></use>
                        </mask>
                        <g id="Clip-5"></g>
                        <path d="M5.15040909,12.4667 L11.7431364,18.068075 L11.7431364,15.091075 L30.8340455,15.091075 L30.8340455,10.3542 L11.7431364,10.3542 L11.7431364,7.232575 L5.15040909,12.4667 Z M14.9249545,25.000325 L0.0754090909,12.380575 L14.9249545,0.589575 L14.9249545,7.1042 L34.0158636,7.1042 L34.0158636,18.341075 L14.9249545,18.341075 L14.9249545,25.000325 Z" id="Fill-4" fill="#45263A" mask="url(#mask-4)"></path>
                    </g>
                    <path d="M58.1874004,35.257489 L77.3118028,35.257489 L77.3118028,38.1843962 L83.9160964,32.6772733 L77.3118028,27.5312209 L77.3118028,30.6003195 L58.1874004,30.6003195 L58.1874004,35.257489 Z M74.1244024,45 L74.1244024,38.4528026 L55,38.4528026 L55,27.405006 L74.1244024,27.405006 L74.1244024,21 L89,32.5925975 L74.1244024,45 Z" id="Fill-7" fill="#45263A"></path>
                </g>
                <path d="M38.548981,40.0958057 C38.548981,40.2184634 38.5243516,40.5008073 38.3519458,41.0122664 C38.23349,41.3906536 38.0188623,41.778298 37.7303464,42.147428 C37.411337,42.5235008 36.9457239,42.8799022 36.3745562,43.1819177 C35.937091,43.4214472 35.3389483,43.592705 34.5883377,43.6968482 L34.5883377,34.7509422 C35.9112888,35.0876721 36.86949,35.6037598 37.5039904,36.3165626 C38.2440455,37.1659087 38.5865115,38.3982706 38.548981,40.0830771 L38.548981,40.0958057 Z M31.7313265,31.9367599 C30.788372,31.7782307 30.0354159,31.5560584 29.4478286,31.2667716 C28.6784528,30.8779701 28.1061123,30.4961115 27.6874124,30.0887956 C27.3027245,29.7323942 27.0177271,29.3181355 26.846494,28.8795767 C26.6811252,28.3993605 26.5790891,27.9469159 26.5356944,27.4990999 C26.4594605,26.1105231 26.9227279,24.8851041 27.9114227,23.8598715 C28.7957357,22.9503537 30.0788105,22.4041802 31.7313265,22.2340795 L31.7313265,31.9367599 Z M40.8371702,37.8312684 C40.6976036,37.0131652 40.3809398,36.218205 39.886006,35.4533306 C39.3723069,34.702342 38.6603998,34.0450823 37.7760868,33.5012231 C36.9597978,32.981664 35.9136344,32.5917053 34.5883377,32.3139899 L34.5883377,22.457409 C35.0164203,22.5800666 35.4034538,22.7547958 35.7447471,22.9804396 C36.2690016,23.3310552 36.7264049,23.7406854 37.1110928,24.2023872 C37.4570773,24.6073887 37.7373834,25.1038049 37.9168262,25.6326213 C38.0939234,26.1799519 38.206515,26.7122397 38.2510825,27.2294846 C38.3554642,28.112388 38.9665081,28.3669604 39.5118736,28.3114173 C40.1111891,28.2396742 40.5416173,27.8022725 40.7046406,26.9691264 C40.6530361,24.9556901 39.9939062,23.3206409 38.7495348,22.1114219 C37.6564582,21.0399035 36.259619,20.352558 34.5883377,20.0632712 L34.5883377,18.4247505 C34.5883377,18.0070204 34.4253145,17.6413618 34.0887126,17.3451321 C33.5022982,16.8926875 32.7751442,16.8637588 32.1535449,17.3856322 C31.8732388,17.6517761 31.7313265,18.0023918 31.7313265,18.4247505 L31.7313265,19.8989562 C30.6781261,19.9857423 29.7070238,20.1940288 28.7804889,20.533073 C27.6534003,20.9565889 26.757359,21.4981338 26.0477975,22.1831651 C25.3253349,22.8589391 24.7623771,23.674728 24.3706522,24.6189602 C23.9953469,25.5712924 23.8534346,26.573382 23.9484338,27.6125003 C24.1724441,29.5229506 24.9899059,31.0989852 26.3937821,32.3012613 C27.7624734,33.42948 29.5873952,34.113354 31.7313265,34.3285834 L31.7360178,43.7338769 C29.9286884,43.5903907 28.5130839,43.144889 27.525562,42.406629 C26.4254485,41.5885258 25.749899,40.6037934 25.4707657,39.4640033 C25.4097786,38.9733728 25.036819,38.4399279 24.1912094,38.416785 C23.6751646,38.3901706 23.3749204,38.5857285 23.2247983,38.7650863 C23.0758491,38.9398156 22.9245541,39.2522453 23.041837,39.7012185 C23.4253521,41.7412692 24.4902807,43.3254039 26.2073023,44.4073367 C27.7507451,45.3642975 29.6085062,45.9220425 31.7360178,46.0690003 L31.7360178,47.4286484 C31.7360178,48.0049077 31.9787934,48.328909 32.1899026,48.5059525 C32.4655174,48.7281248 32.7892182,48.8461538 33.1269929,48.8461538 C33.4577307,48.8461538 33.7767401,48.737382 34.0746387,48.5198383 C34.4053764,48.2791517 34.5883377,47.8915073 34.5883377,47.4286484 L34.5883377,46.0377573 C36.6278872,45.7993849 38.1713301,45.1224537 39.1764445,44.0220066 C40.2683482,42.8370878 40.8700094,41.5306684 40.9673542,40.152506 C41.037724,39.4107745 40.9943293,38.6482144 40.8371702,37.8312684 L40.8371702,37.8312684 Z" id="Fill-1" fill="#00C7AE"></path>
            </g>
        </g>
    </g>
</svg>