<?xml version="1.0" encoding="UTF-8"?>
<svg width="72px" height="77px" viewBox="0 0 72 77" version="1.1" xmlns="http://www.w3.org/2000/svg" xmlns:xlink="http://www.w3.org/1999/xlink">
    <!-- Generator: Sketch 53.2 (72643) - https://sketchapp.com -->
    <title>icons / Online</title>
    <desc>Created with Sketch.</desc>
    <defs>
        <polygon id="path-1" points="0 0.373390805 71.7477919 0.373390805 71.7477919 72.6995253 0 72.6995253"></polygon>
    </defs>
    <g id="***Style-guide***" stroke="none" stroke-width="1" fill="none" fill-rule="evenodd">
        <g id="Steinbach-Style-Guide" transform="translate(-724.000000, -1833.000000)">
            <g id="icons-/-Online" transform="translate(724.000000, 1833.000000)">
                <g id="Group-6">
                    <g id="Group-3">
                        <mask id="mask-2" fill="white">
                            <use xlink:href="#path-1"></use>
                        </mask>
                        <g id="Clip-2"></g>
                        <path d="M12.2728786,60.3277034 C11.7522312,59.8028586 11.2548902,59.2541 10.7692023,58.6952724 C14.2243699,57.1706632 17.6799538,55.9552552 21.1363699,55.0616345 C21.8118382,57.4903529 22.6154913,59.7323759 23.5273526,61.7386172 C24.9640231,64.9011115 26.6807861,67.4997437 28.6023121,69.3721517 C22.3054335,67.9608184 16.6752832,64.7656 12.2728786,60.3277034 M28.6023121,3.7011 C26.6807861,5.57350805 24.9640231,8.17214023 23.5273526,11.3342149 C22.6679306,13.2250828 21.9079769,15.3282379 21.2574798,17.5958529 C17.8547514,16.7223701 14.4503584,15.5438816 11.0447168,14.057031 C11.443422,13.6098011 11.8512832,13.1705425 12.2728786,12.7451287 C16.6752832,8.30723218 22.3054335,5.11243333 28.6023121,3.7011 M59.4753295,12.7451287 C59.8677919,13.1415943 60.2498497,13.5485483 60.6227514,13.9638931 C57.2379191,15.4582954 53.8543353,16.6510483 50.4724162,17.5350195 C49.8256647,15.2908989 49.0719538,13.2078816 48.2208555,11.3342149 C46.7837688,8.17214023 45.0670058,5.57350805 43.1454798,3.7011 C49.4423584,5.11243333 55.0725087,8.30723218 59.4753295,12.7451287 M69.219052,35.2777954 L52.9691098,35.2777954 C52.8812948,29.7688126 52.2212254,24.5715483 51.1129249,19.9612207 C54.836948,18.9870483 58.5593064,17.6529103 62.2795838,15.9692954 C66.4077225,21.3469621 68.953526,28.0168126 69.219052,35.2777954 M35.7307283,21.9683011 C40.0532254,21.9695598 44.3736416,21.4900253 48.6911445,20.5389276 C49.752,24.9562667 50.3850173,29.9576057 50.472,35.2777954 L21.2762081,35.2777954 C21.3623584,29.9785828 21.9912139,24.996123 23.0441618,20.5913701 C27.2713526,21.5038701 31.4997919,21.9670425 35.7307283,21.9683011 M35.873896,2.89096782 C39.7231908,2.89096782 43.2948902,6.5157954 45.9576416,12.3767724 C46.7450636,14.1086345 47.443422,16.0347437 48.0473064,18.1114678 C43.9387283,19.0088644 39.8334798,19.4623874 35.7307283,19.4611287 C31.7178728,19.4598701 27.7025202,19.0239678 23.6850867,18.1647494 C24.2918844,16.0678874 24.9964855,14.1233184 25.7901503,12.3767724 C28.4529017,6.5157954 32.0250173,2.89096782 35.873896,2.89096782 M9.39579191,16.0620138 C13.1360462,17.7372379 16.8775491,19.0596287 20.6207168,20.0216345 C19.5215723,24.6172782 18.8664971,29.793146 18.7790983,35.2777954 L2.52873988,35.2777954 C2.79260116,28.0591862 5.31010405,21.4237379 9.39579191,16.0620138 M20.5216647,52.6270425 C16.7281387,53.6087667 12.9333642,54.9643011 9.13817341,56.6810598 C5.2006474,51.3789103 2.78719075,44.8647092 2.52873988,37.7954563 L18.7790983,37.7954563 C18.8635838,43.1122897 19.4824509,48.1375425 20.5216647,52.6270425 M45.5431214,68.749554 C44.7511214,68.9907897 43.947052,69.2022379 43.1342428,69.3843184 C43.964948,68.5775425 44.7581965,67.6402897 45.5052486,66.575077 C45.9010405,66.0078586 45.7657803,65.2241575 45.2030983,64.8251747 C44.64,64.4257724 43.8625665,64.5625425 43.4667746,65.1297609 C42.2985434,66.7953356 41.0300116,68.0967494 39.694474,68.9635195 C38.4725549,69.7564506 37.1894566,70.1822839 35.873896,70.1822839 C32.0250173,70.1822839 28.4529017,66.5574563 25.7901503,60.6964793 C24.9436301,58.8333011 24.196578,56.7498644 23.5639769,54.4906402 C23.9822428,54.4004391 24.4009249,54.3073011 24.8191908,54.2263299 C29.9016416,53.2420885 34.985341,52.9437954 40.070289,53.3335483 C40.756578,53.3851517 41.355052,52.8657609 41.4058266,52.1731 C41.4574335,51.4808586 40.9417803,50.8779793 40.2550751,50.8263759 C34.9549595,50.4202609 29.6535954,50.7311402 24.3509827,51.7581747 C23.8827746,51.8487954 23.4137341,51.9524218 22.9451098,52.0543701 C21.9520925,47.7549218 21.3598613,42.9247552 21.2762081,37.7954563 L50.4703353,37.7954563 C50.4557688,38.7381632 50.4307977,39.6628299 50.384185,40.5459621 C50.3142659,41.8733874 50.2085549,43.1857092 50.0695491,44.4783126 C49.9967168,45.1676172 50.4923931,45.7864391 51.1766012,45.8598586 C51.8608092,45.9324391 52.4742659,45.4331862 52.5470983,44.7434621 C52.6894335,43.4223299 52.798474,42.0642782 52.8713064,40.6735023 C52.9224971,39.7039448 52.9499653,38.746554 52.9661965,37.7954563 L69.2198844,37.7954563 C69.1524624,39.6359793 68.9468671,41.4400023 68.598104,43.1924218 C68.1598613,45.3979448 67.5060347,47.526692 66.6611792,49.5543299 C66.3944046,50.1953874 66.6936416,50.9325195 67.3295723,51.2014448 C67.9650867,51.4703701 68.6971561,51.1687207 68.9630983,50.5280828 C69.8716301,48.3481517 70.5741503,46.0583011 71.0465202,43.684123 C71.5064046,41.3724563 71.7477919,38.9823356 71.7477919,36.5364161 C71.7477919,26.5505195 67.7320231,17.5094276 61.2407861,10.9654391 C54.7487168,4.42145057 45.7799306,0.373306897 35.873896,0.373306897 C25.9678613,0.373306897 16.9990751,4.42145057 10.507422,10.9654391 C9.62469364,11.8552839 8.7923237,12.7954736 8.00490173,13.7738414 C8.00448555,13.7742609 8.00365318,13.7751 8.00323699,13.7755195 C3.00152601,19.9914276 0,27.9094103 0,36.5364161 C0,46.5227322 4.0153526,55.5638241 10.507422,62.1078126 C16.9990751,68.6518011 25.9678613,72.6995253 35.873896,72.6995253 C37.6539191,72.6995253 39.4114682,72.5673701 41.1357225,72.3114506 C42.8957688,72.0504966 44.6087861,71.6632609 46.2647861,71.158554 C46.9248555,70.9580138 47.2981734,70.2557034 47.0988208,69.5903126 C46.8998844,68.9249218 46.2031908,68.5490138 45.5431214,68.749554" id="Fill-1" fill="#44273A" mask="url(#mask-2)"></path>
                    </g>
                    <path d="M66.5332696,73.7664083 L59.4797799,66.2161033 C59.0016897,65.7049274 58.215248,65.6937117 57.7234626,66.1906523 C57.6246905,66.2907306 57.5454238,66.4041815 57.4852475,66.5245343 L54.5735457,72.3842922 L48.1923702,52.3000409 L67.5641515,58.7783864 L61.9445172,61.8532064 C61.3373593,62.1849315 61.1045393,62.9661462 61.4240961,63.5972436 C61.4946476,63.7361454 61.5863646,63.8560668 61.6921918,63.9557137 L68.9822366,71.2010387 C68.1617642,72.0538612 67.3475169,72.9066838 66.5332696,73.7664083 L66.5332696,73.7664083 Z M64.6292092,63.3026164 L71.3353365,59.6320717 C71.6125624,59.4806601 71.8354221,59.21968 71.9387593,58.8853666 C72.1483388,58.2068184 71.7889412,57.4799565 71.1365473,57.2621136 L46.7049787,49.0923583 C46.4431081,48.9836526 46.1443018,48.9663977 45.8554556,49.0647505 C45.2026468,49.2882013 44.8478142,50.0193769 45.0627888,50.6974937 L53.1376152,76.1130722 L53.1396903,76.1122095 C53.2380473,76.4227974 53.4488718,76.6945618 53.7501682,76.8563263 C54.3598162,77.1828749 55.1093221,76.9339733 55.4230687,76.3002877 L58.9008426,69.3021389 L65.656771,76.5323659 C66.1452364,77.0318947 66.931678,77.0254241 67.4122583,76.5172679 L69.5122028,74.3000155 L71.6582134,72.069822 C72.1304934,71.5534697 72.110988,70.7368824 71.6142225,70.2451182 L64.6292092,63.3026164 Z" id="Fill-4" fill="#00C8AE"></path>
                </g>
            </g>
        </g>
    </g>
</svg>