<?xml version="1.0" encoding="UTF-8"?>
<svg width="77px" height="70px" viewBox="0 0 77 70" version="1.1" xmlns="http://www.w3.org/2000/svg" xmlns:xlink="http://www.w3.org/1999/xlink">
    <!-- Generator: Sketch 53.2 (72643) - https://sketchapp.com -->
    <title>icons /vacation </title>
    <desc>Created with Sketch.</desc>
    <g id="***Style-guide***" stroke="none" stroke-width="1" fill="none" fill-rule="evenodd">
        <g id="Steinbach-Style-Guide" transform="translate(-488.000000, -1945.000000)">
            <g id="icons-/vacation-" transform="translate(488.000000, 1947.000000)">
                <g id="Group-21">
                    <path d="M62.7689507,12 C66.7593512,12.7370625 73.8613042,14.8791505 75,23 C72.0092685,20.2886629 64.9652433,18.2732576 60,19.9168412" id="Stroke-1" stroke="#45263A" stroke-width="2.5"></path>
                    <path d="M53.8068947,15 C57.6027471,8.20733503 63.4960948,3.30170312 69,1.7139136 C65.0619445,-1.760909 56.3762456,0.283104294 51,5.72508528" id="Stroke-3" stroke="#45263A" stroke-width="2.5"></path>
                    <path d="M49,24 C46.2652673,29.7351525 45.0970645,36.329053 45.0970645,43 C41.048522,39.364366 38.5464257,35.1380417 39.0686023,30.0208668" id="Stroke-5" stroke="#45263A" stroke-width="2.5"></path>
                    <path d="M70.5633289,67 C72.9473909,42.877121 65.4964026,27.5992976 50,18" id="Stroke-7" stroke="#45263A" stroke-width="2.5"></path>
                    <path d="M52,28 C57.2729447,34.1478943 64.7612407,42.8464079 58.805995,67" id="Stroke-9" stroke="#45263A" stroke-width="2.5"></path>
                    <path d="M42.8064017,15.0062451 C33.7490972,14.7322293 25.1555162,23.5230365 27.3451404,32 C31.4615033,27.3528843 38.5920691,22.294745 44,21.558726" id="Stroke-11" stroke="#45263A" stroke-width="2.5"></path>
                    <path d="M49,13 C47.4046375,1.75125959 35.6345526,0.670211809 29,6.39035051 C33.9003919,7.41458647 37.6724363,9.08972357 38.6930111,10.9190642" id="Stroke-13" stroke="#45263A" stroke-width="2.5"></path>
                    <path d="M0,51 C2.7132,51 5.42802857,54.0015002 8.14285714,53.9999994 C10.8560571,54.0015002 13.5708857,51 16.2857143,51 C18.9989143,51 21.7137429,54.0015002 24.4285714,53.9999994 C27.1417714,54.0015002 29.8566,51 32.5714286,51 C35.2846286,51 37.9994571,54.0015002 40.7142857,53.9999994 C43.4274857,54.0015002 46.1423143,51 48.8571429,51 C51.5703429,51 54.2851714,54.0015002 57,54" id="Stroke-15" stroke="#00C8AE" stroke-width="2.5"></path>
                    <path d="M0,61 C2.7132,61 5.42802857,64.0015002 8.14285714,63.9999994 C10.8560571,64.0015002 13.5708857,61 16.2857143,61 C18.9989143,61 21.7137429,64.0015002 24.4285714,63.9999994 C27.1417714,64.0015002 29.8566,61 32.5714286,61 C35.2846286,61 37.9994571,64.0015002 40.7142857,63.9999994 C43.4274857,64.0015002 46.1423143,61 48.8571429,61 C51.5703429,61 54.2851714,64.0015002 57,64" id="Stroke-17" stroke="#00C8AE" stroke-width="2.5"></path>
                    <path d="M19,14 C19,18.4176 15.4192,22 11,22 C6.5808,22 3,18.4176 3,14 C3,9.5824 6.5808,6 11,6 C15.4192,6 19,9.5824 19,14 Z" id="Stroke-19" stroke="#45263A" stroke-width="2.5"></path>
                </g>
            </g>
        </g>
    </g>
</svg>